Ligand,Analyte,Block,Row,Column,ROI,Rmax1,Rmax2,Rmax3,Rmax4,Rmax5,Rmax_se1,Rmax_se2,Rmax_se3,Rmax_se4,Rmax_se5,ka,ka_se,kd,kd_se,KD,KD_se,Bulkshift1,Bulkshift2,Bulkshift3,Bulkshift4,Bulkshift5,Bulkshift_se1,Bulkshift_se2,Bulkshift_se3,Bulkshift_se4,Bulkshift_se5,R01,R02,R03,R04,R05,R0_se1,R0_se2,R0_se3,R0_se4,R0_se5
CH505TF_D7gp120.avi/293F 20 µg/ml,PGT121 Fab Fragment,2,A,1,1,18.6,18.88,16.45,14.4,19.25,1.8,1.42,0.92,0.55,0.45,33152.66,3025.66,0.00506,1.34e-4,1.53e-7,1.45e-8,NA,NA,NA,NA,NA,NA,NA,NA,NA,NA,NA,NA,NA,NA,NA,NA,NA,NA,NA,NA
CH505TF_D7gp120.avi/293F 20 µg/ml,PGT121 Fab Fragment,3,A,1,2,15.07,16.39,16.52,16.36,19.64,1.3,1.04,0.74,0.48,0.36,31393.96,2372.38,0.00365,8.42e-5,1.16e-7,9.18e-9,NA,NA,NA,NA,NA,NA,NA,NA,NA,NA,NA,NA,NA,NA,NA,NA,NA,NA,NA,NA
CH505TF_D7gp120.avi/293F 20 µg/ml,PGT121 Fab Fragment,4,A,1,3,17.02,14.83,11.65,12.47,15.13,2.08,1.5,0.94,0.69,0.51,16536.97,1730.51,0.00267,9.19e-5,1.61e-7,1.78e-8,NA,NA,NA,NA,NA,NA,NA,NA,NA,NA,NA,NA,NA,NA,NA,NA,NA,NA,NA,NA
CH505TF_D7gp120.avi/293F 20 µg/ml,PGT121 Fab Fragment,2,A,3,4,0,22.83,13.17,16.22,9.71,5.94,31.66,17.67,20.36,10.7,7515.98,10465.85,7.27e-4,1.92e-4,9.67e-8,1.37e-7,NA,NA,NA,NA,NA,NA,NA,NA,NA,NA,NA,NA,NA,NA,NA,NA,NA,NA,NA,NA
CH505TF_D7gp120.avi/293F 20 µg/ml,PGT121 Fab Fragment,3,A,3,5,15.63,15.17,16.15,16.15,20.03,1.23,0.89,0.65,0.43,0.34,37628.29,2787.49,0.00383,8.55e-5,1.02e-7,7.87e-9,NA,NA,NA,NA,NA,NA,NA,NA,NA,NA,NA,NA,NA,NA,NA,NA,NA,NA,NA,NA
CH505TF_D7gp120.avi/293F 20 µg/ml,PGT121 Fab Fragment,4,A,3,6,0,0,13.2,8.89,NA,6.05,3.08,81.45,51.31,NA,7302.48,47503.14,1e-5,NA,1.37e-9,NA,NA,NA,NA,NA,NA,NA,NA,NA,NA,NA,NA,NA,NA,NA,NA,NA,NA,NA,NA,NA
BG505/6R.SOSIP.664/T332N 20 µg/ml,PGT121 Fab Fragment,2,A,9,7,132.83,212.63,336.43,400,400,28.29,19.7,15.29,NA,NA,105419.74,42414.69,1e-5,NA,9.49e-11,NA,15.69,27.57,49.56,100,100,20.55,19.12,17.59,NA,NA,58.25,33.64,18.22,19.89,19.97,63.83,29.67,15.24,15.99,22.18
BG505/6R.SOSIP.664/T332N 20 µg/ml,PGT121 Fab Fragment,3,A,9,8,153.51,235.19,400,400,400,36.51,23.93,NA,NA,NA,82418.13,24038.7,1e-5,NA,1.21e-10,NA,10.98,19.33,0.11,100,100,23.91,21.88,10.48,NA,NA,60.96,38.75,18.15,25.71,23.34,68.72,29.78,14.22,17.01,22.36
BG505/6R.SOSIP.664/T332N 20 µg/ml,PGT121 Fab Fragment,4,A,9,9,122.98,196.24,307.16,400,400,24.78,16.78,12.43,NA,NA,87183.45,25292.81,1e-5,NA,1.15e-10,NA,11.5,19.87,42.62,100,100,16.08,14.95,13.87,NA,NA,49.67,33.55,19.81,17.73,18.42,51.97,23.75,12.65,10.94,12.24
BG505/6R.SOSIP.664/T332N 20 µg/ml,PGT121 Fab Fragment,2,A,11,10,145.08,235.58,400,400,400,33.75,23.28,NA,NA,NA,99654.69,34435.37,1e-5,NA,1e-10,NA,8.77,19.56,15.4,100,100,24.94,22.88,11.22,NA,NA,59.43,32.54,16.19,24.02,22.18,70.83,29.1,14.27,18.83,28.73
BG505/6R.SOSIP.664/T332N 20 µg/ml,PGT121 Fab Fragment,3,A,11,11,142.57,225.8,400,400,400,36.42,23.96,NA,NA,NA,80959.58,22318.17,1e-5,NA,1.24e-10,NA,8.09,13.67,-4.94,100,100,23.97,21.89,10.49,NA,NA,56.24,34.25,15.85,24.18,22.42,71.6,28.67,13.07,15.69,20.3
BG505/6R.SOSIP.664/T332N 20 µg/ml,PGT121 Fab Fragment,4,A,11,12,136.42,214.11,332.05,400,400,27.99,19.22,14.46,NA,NA,99010.09,35661.25,1e-5,NA,1.01e-10,NA,8.51,21.98,47.45,100,100,19.28,18.01,16.5,NA,NA,51.2,31.76,18.89,19.18,19.19,55.25,26.41,14.36,14.1,17.73
CH505TF_D7gp120.avi/293F 2 µg/ml,PGT121 Fab Fragment,2,E,1,13,12.65,21.82,19.42,15.26,16.71,2.1,2.39,1.76,1.02,0.7,12231.09,1366.74,0.00242,8.4e-5,1.98e-7,2.31e-8,NA,NA,NA,NA,NA,NA,NA,NA,NA,NA,NA,NA,NA,NA,NA,NA,NA,NA,NA,NA
CH505TF_D7gp120.avi/293F 2 µg/ml,PGT121 Fab Fragment,3,E,1,14,17.21,22.25,23.22,21.54,NA,4.05,4.43,3.96,2.82,NA,9871.87,2075.35,0.00244,1.06e-4,2.47e-7,5.31e-8,NA,NA,NA,NA,NA,NA,NA,NA,NA,NA,NA,NA,NA,NA,NA,NA,NA,NA,NA,NA
CH505TF_D7gp120.avi/293F 2 µg/ml,PGT121 Fab Fragment,4,E,1,15,26.72,29.69,24.94,22.59,22.5,3.02,2.69,1.91,1.32,0.86,10555.69,950.61,0.00278,7.01e-5,2.64e-7,2.47e-8,NA,NA,NA,NA,NA,NA,NA,NA,NA,NA,NA,NA,NA,NA,NA,NA,NA,NA,NA,NA
CH505TF_D7gp120.avi/293F 2 µg/ml,PGT121 Fab Fragment,2,E,3,16,21.03,20.33,18.88,20.01,24.33,1.63,1.22,0.84,0.59,0.45,27300.62,1825.99,0.00436,8.76e-5,1.6e-7,1.11e-8,NA,NA,NA,NA,NA,NA,NA,NA,NA,NA,NA,NA,NA,NA,NA,NA,NA,NA,NA,NA
CH505TF_D7gp120.avi/293F 2 µg/ml,PGT121 Fab Fragment,3,E,3,17,25.43,24.97,26.12,27.93,29.63,1.73,1.3,1.01,0.73,0.49,22098.32,1193.03,0.00413,6.69e-5,1.87e-7,1.05e-8,NA,NA,NA,NA,NA,NA,NA,NA,NA,NA,NA,NA,NA,NA,NA,NA,NA,NA,NA,NA
CH505TF_D7gp120.avi/293F 2 µg/ml,PGT121 Fab Fragment,4,E,3,18,25.11,19.18,23.36,24.33,29.94,1.48,0.92,0.77,0.52,0.4,29537.88,1541.28,0.00397,6.35e-5,1.34e-7,7.34e-9,NA,NA,NA,NA,NA,NA,NA,NA,NA,NA,NA,NA,NA,NA,NA,NA,NA,NA,NA,NA
BG505/6R.SOSIP.664/T332N 2 µg/ml,PGT121 Fab Fragment,2,E,9,19,220.44,245.06,293.25,350.54,400,6.37,4.06,2.59,1.38,NA,18539.01,541.74,4.77e-5,3.1e-6,2.57e-9,1.83e-10,-6.71,-7.31,-4.45,6.2,30.75,0.98,0.96,0.96,0.97,0.58,228.64,197.36,154.08,111.78,86.79,10.64,5.83,4.17,3.69,3.55
BG505/6R.SOSIP.664/T332N 2 µg/ml,PGT121 Fab Fragment,3,E,9,20,366.83,330.72,319.7,326.36,351.68,9.11,6.3,4.27,2.46,1.19,6540.38,163.82,5.79e-5,1.44e-6,8.86e-9,3.13e-10,-2.49,-1.84,-3.68,-4.71,-4.16,0.35,0.35,0.36,0.38,0.41,268.19,285.75,272.15,241.03,183.87,6.13,4.13,3.51,4.08,4.16
BG505/6R.SOSIP.664/T332N 2 µg/ml,PGT121 Fab Fragment,4,E,9,21,281.23,266.95,263.46,277.71,304.05,7.35,5.19,3.53,2.11,1.04,6914.34,172,6.45e-5,1.65e-6,9.33e-9,3.33e-10,-0.01,-1.49,-3.82,-8.29,-11.74,0.34,0.33,0.34,0.36,0.39,228.25,250.35,247.82,217.7,166.41,6.52,4.15,3.4,3.78,3.84
BG505/6R.SOSIP.664/T332N 2 µg/ml,PGT121 Fab Fragment,2,E,11,22,217.48,241.91,288.85,353.13,400,8.69,5.55,3.46,1.89,NA,20252.21,908.12,3.77e-5,4.19e-6,1.86e-9,2.23e-10,-4.6,-3.11,2.93,11.36,43.51,1.37,1.34,1.35,1.37,0.8,224.92,198.17,153.22,103.58,89.59,14.04,8.32,6.37,5.33,5.5
BG505/6R.SOSIP.664/T332N 2 µg/ml,PGT121 Fab Fragment,3,E,11,23,351.96,322.56,312.49,328.13,361.11,8.77,6.07,4.1,2.52,1.3,6379.23,152.27,6.32e-5,1.5e-6,9.91e-9,3.34e-10,1.19,-0.12,-2.33,-7.13,-10.18,0.36,0.36,0.36,0.38,0.43,242.19,272.01,269.03,230.58,173.41,6.24,4.17,3.43,3.69,3.71
BG505/6R.SOSIP.664/T332N 2 µg/ml,PGT121 Fab Fragment,4,E,11,24,296.67,292.71,307.71,336.46,370.58,6.5,4.54,3.18,1.86,0.85,8435.58,173.68,7.63e-5,1.55e-6,9.05e-9,2.6200000000000003e-10,-4.55,-6.72,-11.26,-14.11,-8.63,0.39,0.39,0.39,0.42,0.43,227.27,234.07,216.79,189.54,146.57,6,3.59,2.73,3.02,3.03
CH505TF_D7gp120.avi/293F 10 µg/ml,PGT121 Fab Fragment,2,B,1,25,13.81,12.45,10.19,11.27,NA,2.28,1.74,1.1,0.77,NA,18200.94,2950.9,0.00178,9.9e-5,9.77e-8,1.68e-8,NA,NA,NA,NA,NA,NA,NA,NA,NA,NA,NA,NA,NA,NA,NA,NA,NA,NA,NA,NA
CH505TF_D7gp120.avi/293F 10 µg/ml,PGT121 Fab Fragment,3,B,1,26,23.53,21.81,22.59,21.39,22.83,1.82,1.34,1.02,0.65,0.44,25137.99,1718.83,0.00395,8.03e-5,1.57e-7,1.12e-8,NA,NA,NA,NA,NA,NA,NA,NA,NA,NA,NA,NA,NA,NA,NA,NA,NA,NA,NA,NA
CH505TF_D7gp120.avi/293F 10 µg/ml,PGT121 Fab Fragment,4,B,1,27,18.09,17.26,15.94,20.97,NA,1.08,0.74,0.46,0.37,NA,31155.06,2248.15,0.00371,8.21e-5,1.19e-7,8.98e-9,NA,NA,NA,NA,NA,NA,NA,NA,NA,NA,NA,NA,NA,NA,NA,NA,NA,NA,NA,NA
CH505TF_D7gp120.avi/293F 10 µg/ml,PGT121 Fab Fragment,2,B,3,28,18.97,13.11,16.41,13.29,16.21,2.03,1.21,1.09,0.61,0.45,20300.48,1945.02,0.00297,8.96e-5,1.46e-7,1.47e-8,NA,NA,NA,NA,NA,NA,NA,NA,NA,NA,NA,NA,NA,NA,NA,NA,NA,NA,NA,NA
CH505TF_D7gp120.avi/293F 10 µg/ml,PGT121 Fab Fragment,3,B,3,29,19.72,19.95,23.28,21.29,20.89,1.85,1.43,1.25,0.79,0.49,19334.03,1441.19,0.00336,7.54e-5,1.74e-7,1.35e-8,NA,NA,NA,NA,NA,NA,NA,NA,NA,NA,NA,NA,NA,NA,NA,NA,NA,NA,NA,NA
CH505TF_D7gp120.avi/293F 10 µg/ml,PGT121 Fab Fragment,4,B,3,30,18.9,17,18.78,18.71,19.59,2.9,2.09,1.83,1.39,0.97,12119.56,1370.69,0.00404,1.24e-4,3.33e-7,3.9e-8,NA,NA,NA,NA,NA,NA,NA,NA,NA,NA,NA,NA,NA,NA,NA,NA,NA,NA,NA,NA
BG505/6R.SOSIP.664/T332N 10 µg/ml,PGT121 Fab Fragment,2,B,9,31,136.04,216.4,336.08,400,400,26.15,18.02,13.78,NA,NA,102205.9,36126.47,1e-5,NA,9.78e-11,NA,12.15,23.63,45.98,100,100,18.44,17.19,15.79,NA,NA,54.88,34.02,18.77,19.79,19.18,54.57,26.3,13.78,14.06,17.71
BG505/6R.SOSIP.664/T332N 10 µg/ml,PGT121 Fab Fragment,3,B,9,32,127.2,207.41,321.8,400,400,24.28,16.84,12.62,NA,NA,95788.5,30104.33,1e-5,NA,1.04e-10,NA,12.87,20.08,43.59,100,100,16.68,15.58,14.31,NA,NA,54.55,32.96,19.4,18.76,18.7,53.04,23.86,12.9,12.07,14.28
BG505/6R.SOSIP.664/T332N 10 µg/ml,PGT121 Fab Fragment,4,B,9,33,146.81,224.26,336.28,400,400,27.17,18.51,13.86,NA,NA,98803.32,34223.94,1e-5,NA,1.01e-10,NA,12.32,26.59,49.93,100,100,18.5,17.3,15.82,NA,NA,57.61,35.04,19.7,19.61,18.94,52.74,26.02,14.05,13.76,16.62
BG505/6R.SOSIP.664/T332N 10 µg/ml,PGT121 Fab Fragment,2,B,11,34,144.19,239.5,400,400,400,29.16,20.79,NA,NA,NA,111757.31,39455.77,1e-5,NA,8.95e-11,NA,8.42,19.77,31.57,100,100,22.89,21.11,10.51,NA,NA,59.58,29.64,16.63,24.48,21.55,64.51,26.05,13.7,19.48,30.85
BG505/6R.SOSIP.664/T332N 10 µg/ml,PGT121 Fab Fragment,3,B,11,35,142.03,226.69,400,400,400,33.12,22.05,NA,NA,NA,85872.26,23359.8,1e-5,NA,1.16e-10,NA,6.84,13.51,-2.33,100,100,22.6,20.64,9.95,NA,NA,57.1,33.88,15.49,24.08,21.96,66.79,26.89,12.27,15.28,20.07
BG505/6R.SOSIP.664/T332N 10 µg/ml,PGT121 Fab Fragment,4,B,11,36,144.41,214.25,318.46,400,400,23.73,15.83,11.61,NA,NA,93237.75,28232.45,1e-5,NA,1.07e-10,NA,7.38,19.31,40.86,100,100,15.41,14.39,13.13,NA,NA,61.96,39.56,23.21,19.33,19.32,47.28,24.33,13.64,11.71,13.62
CH505TF_D7gp120.avi/293F 1 µg/ml,PGT121 Fab Fragment,2,F,1,37,9.61,2.84,8.16,9.6,9.69,3.34,1.35,1.95,1.81,1.27,15051.47,3871.66,0.00247,1.73e-4,1.64e-7,4.37e-8,NA,NA,NA,NA,NA,NA,NA,NA,NA,NA,NA,NA,NA,NA,NA,NA,NA,NA,NA,NA
CH505TF_D7gp120.avi/293F 1 µg/ml,PGT121 Fab Fragment,3,F,1,38,8.15,15.06,11.06,14.98,NA,1.37,1.73,0.98,0.84,NA,23157.84,3125.4,0.00318,1.26e-4,1.37e-7,1.93e-8,NA,NA,NA,NA,NA,NA,NA,NA,NA,NA,NA,NA,NA,NA,NA,NA,NA,NA,NA,NA
CH505TF_D7gp120.avi/293F 1 µg/ml,PGT121 Fab Fragment,4,F,1,39,17.03,15,17.36,17.45,21.55,1.68,1.16,0.96,0.65,0.5,28787.62,2361.45,0.00521,1.29e-4,1.81e-7,1.55e-8,NA,NA,NA,NA,NA,NA,NA,NA,NA,NA,NA,NA,NA,NA,NA,NA,NA,NA,NA,NA
CH505TF_D7gp120.avi/293F 1 µg/ml,PGT121 Fab Fragment,2,F,3,40,7.77,8.9,11.99,9.99,9.88,1.39,1.14,1.13,0.66,0.42,18573.81,2398.73,0.00348,1.33e-4,1.88e-7,2.53e-8,NA,NA,NA,NA,NA,NA,NA,NA,NA,NA,NA,NA,NA,NA,NA,NA,NA,NA,NA,NA
CH505TF_D7gp120.avi/293F 1 µg/ml,PGT121 Fab Fragment,3,F,3,41,15.43,11.68,13.25,15,14.82,1.84,1.17,0.99,0.78,0.49,16605.94,1588.64,0.00333,9.72e-5,2.01e-7,2.01e-8,NA,NA,NA,NA,NA,NA,NA,NA,NA,NA,NA,NA,NA,NA,NA,NA,NA,NA,NA,NA
CH505TF_D7gp120.avi/293F 1 µg/ml,PGT121 Fab Fragment,4,F,3,42,17.89,11.39,12.47,15.73,19.42,1.6,0.89,0.69,0.56,0.43,33081.1,2719.76,0.00583,1.46e-4,1.76e-7,1.51e-8,NA,NA,NA,NA,NA,NA,NA,NA,NA,NA,NA,NA,NA,NA,NA,NA,NA,NA,NA,NA
BG505/6R.SOSIP.664/T332N 1 µg/ml,PGT121 Fab Fragment,2,F,9,43,168.63,166.88,175.54,190.09,212.62,5.11,3.46,2.29,1.25,0.62,10830.34,336.8,1.25e-4,2.64e-6,1.16e-8,4.34e-10,-9.04,-8.1,-8.21,-3.52,2.78,0.4,0.4,0.4,0.42,0.42,307.24,260.4,217.4,174.5,114.59,11.06,6.15,4.68,4.76,3.91
BG505/6R.SOSIP.664/T332N 1 µg/ml,PGT121 Fab Fragment,3,F,9,44,116.41,113.47,119.05,134.62,155.67,3.99,2.6,1.73,1.07,0.57,10031.49,299.98,1.38e-4,3.26e-6,1.37e-8,5.2400000000000005e-10,-3.03,-4.31,-5.83,-9.53,-11.99,0.32,0.32,0.32,0.33,0.35,213.89,219.84,193.62,150.51,102.29,10.44,6.32,4.35,3.94,3.37
BG505/6R.SOSIP.664/T332N 1 µg/ml,PGT121 Fab Fragment,4,F,9,45,184.28,155.25,134.57,123.88,119.8,17.79,12.68,8.32,4.77,2.05,4349.07,439.25,3.88e-5,3.36e-6,8.91e-9,1.19e-9,2.82,4.18,4.65,4.58,4.74,0.3,0.3,0.31,0.33,0.36,244.03,298.51,325.64,309.85,279.6,14.07,11.02,12.08,16.64,21.62
BG505/6R.SOSIP.664/T332N 1 µg/ml,PGT121 Fab Fragment,2,F,11,46,146.99,148.21,160,182.67,215.79,4.33,2.79,1.86,1.13,0.64,11208.33,280.45,1.75e-4,3.1e-6,1.57e-8,4.79e-10,-6.53,-7.28,-10,-14.38,-18.29,0.41,0.41,0.41,0.42,0.44,255.1,225.31,186.96,141.08,86.81,11.04,5.9,3.81,3.3,2.53
BG505/6R.SOSIP.664/T332N 1 µg/ml,PGT121 Fab Fragment,3,F,11,47,123.1,115.5,119.44,131.65,149.02,4.54,2.95,1.97,1.18,0.62,9536.43,320.05,1.38e-4,3.27e-6,1.45e-8,5.94e-10,-2.05,-1.59,-2.61,-4.45,-4.72,0.33,0.32,0.32,0.34,0.36,208.11,220.06,202.18,161.92,109.34,10.32,6.59,4.81,4.59,3.95
BG505/6R.SOSIP.664/T332N 1 µg/ml,PGT121 Fab Fragment,4,F,11,48,101.84,100.24,107.6,122.49,141.54,3.17,2.06,1.36,0.79,0.41,11307.21,317.63,1.05e-4,3.02e-6,9.31e-9,3.74e-10,-2.85,-3.28,-4.84,-7.34,-9.75,0.28,0.28,0.28,0.29,0.29,202.29,205.99,182.32,146.96,97.78,9.1,5.52,3.95,3.8,3.14
CH505TF_D7gp120.avi/293F 5 µg/ml,PGT121 Fab Fragment,2,C,1,49,21.86,22.02,22.23,20.72,24.88,1.69,1.3,0.95,0.59,0.45,35844.95,2555.38,0.00528,1.11e-4,1.47e-7,1.09e-8,NA,NA,NA,NA,NA,NA,NA,NA,NA,NA,NA,NA,NA,NA,NA,NA,NA,NA,NA,NA
CH505TF_D7gp120.avi/293F 5 µg/ml,PGT121 Fab Fragment,3,C,1,50,37,27.82,27.33,27.03,32.35,2.14,1.35,0.98,0.65,0.49,28633.27,1561.29,0.00479,7.68e-5,1.67e-7,9.51e-9,NA,NA,NA,NA,NA,NA,NA,NA,NA,NA,NA,NA,NA,NA,NA,NA,NA,NA,NA,NA
CH505TF_D7gp120.avi/293F 5 µg/ml,PGT121 Fab Fragment,4,C,1,51,20.45,23.01,22.58,23.98,27.33,1.46,1.2,0.87,0.62,0.44,27330.96,1557.3,0.00482,8.22e-5,1.76e-7,1.05e-8,NA,NA,NA,NA,NA,NA,NA,NA,NA,NA,NA,NA,NA,NA,NA,NA,NA,NA,NA,NA
CH505TF_D7gp120.avi/293F 5 µg/ml,PGT121 Fab Fragment,2,C,3,52,21.46,20.61,21.63,23.29,29.43,1.34,0.96,0.68,0.48,0.38,46003.24,2848.84,0.00439,8.01e-5,9.54e-8,6.16e-9,NA,NA,NA,NA,NA,NA,NA,NA,NA,NA,NA,NA,NA,NA,NA,NA,NA,NA,NA,NA
CH505TF_D7gp120.avi/293F 5 µg/ml,PGT121 Fab Fragment,3,C,3,53,36.59,25.89,25.2,27.84,29.79,2.09,1.25,0.88,0.63,0.43,27315.93,1502.77,0.00349,5.87e-5,1.28e-7,7.34e-9,NA,NA,NA,NA,NA,NA,NA,NA,NA,NA,NA,NA,NA,NA,NA,NA,NA,NA,NA,NA
CH505TF_D7gp120.avi/293F 5 µg/ml,PGT121 Fab Fragment,4,C,3,54,28,28.15,24.86,28.09,32.03,1.74,1.34,0.88,0.64,0.46,30181.09,1671.53,0.00429,7.13e-5,1.42e-7,8.23e-9,NA,NA,NA,NA,NA,NA,NA,NA,NA,NA,NA,NA,NA,NA,NA,NA,NA,NA,NA,NA
BG505/6R.SOSIP.664/T332N 5 µg/ml,PGT121 Fab Fragment,2,C,9,55,143.54,215.04,324.33,400,400,22.99,15.64,11.9,NA,NA,102501.67,34472.26,1e-5,NA,9.76e-11,NA,9.52,18.63,36.8,100,100,16.06,14.94,13.63,NA,NA,70.68,40.55,21.92,19.94,19.16,53.17,26.52,14.07,13.04,15.81
BG505/6R.SOSIP.664/T332N 5 µg/ml,PGT121 Fab Fragment,3,C,9,56,143.38,224.45,340.16,400,400,22.31,15.55,11.66,NA,NA,100380.92,29568.67,1e-5,NA,9.96e-11,NA,6.22,16.54,40.8,100,100,15.58,14.61,13.33,NA,NA,63.23,34.05,19.81,19.88,18.23,47.67,21.68,11.88,11.8,13.47
BG505/6R.SOSIP.664/T332N 5 µg/ml,PGT121 Fab Fragment,4,C,9,57,126.44,195.87,300.91,400,400,17.07,11.48,8.46,NA,NA,90683.79,20499.63,1e-5,NA,1.1e-10,NA,-3.35,3.94,21.9,68.92,100,11.18,10.41,9.59,5.4,NA,61.22,39.92,24,18.56,20.39,38.74,18.9,10.53,8.45,10.54
BG505/6R.SOSIP.664/T332N 5 µg/ml,PGT121 Fab Fragment,2,C,11,58,149.16,225.15,332.93,400,400,22.11,15.13,11.33,NA,NA,104083.23,33204.65,1e-5,NA,9.61e-11,NA,2.35,15.64,36.4,100,100,15.41,14.42,13.03,NA,NA,67.27,38.47,22.41,20.3,19.06,47.7,23.96,13.43,12.59,15.24
BG505/6R.SOSIP.664/T332N 5 µg/ml,PGT121 Fab Fragment,3,C,11,59,129.81,202.36,318.65,400,400,20.8,14.21,10.92,NA,NA,100193.34,29643.24,1e-5,NA,9.98e-11,NA,5.57,14.27,31.37,100,100,14.58,13.53,12.45,NA,NA,61.76,37.28,20.09,19.56,19.22,48.46,23.3,12.01,11.43,13.95
BG505/6R.SOSIP.664/T332N 5 µg/ml,PGT121 Fab Fragment,4,C,11,60,132.93,202.17,307.96,400,400,18.16,12.22,9.07,NA,NA,92358.3,22461.18,1e-5,NA,1.08e-10,NA,3.3,11.1,29.7,100,100,11.97,11.14,10.22,NA,NA,66.13,40.89,23.35,19.56,20.01,41.22,20.2,11.01,9.39,11.18
CH505TF_D7gp120.avi/293F 3 µg/ml,PGT121 Fab Fragment,2,D,1,61,19.26,19.9,20.82,22.44,27.06,1.36,1.04,0.76,0.53,0.4,33823.38,2062.86,0.00435,8.02e-5,1.29e-7,8.2e-9,NA,NA,NA,NA,NA,NA,NA,NA,NA,NA,NA,NA,NA,NA,NA,NA,NA,NA,NA,NA
CH505TF_D7gp120.avi/293F 3 µg/ml,PGT121 Fab Fragment,3,D,1,62,27.95,25.94,25.31,25.61,28.65,1.67,1.21,0.85,0.56,0.4,30458.79,1702.67,0.00356,6.07e-5,1.17e-7,6.84e-9,NA,NA,NA,NA,NA,NA,NA,NA,NA,NA,NA,NA,NA,NA,NA,NA,NA,NA,NA,NA
CH505TF_D7gp120.avi/293F 3 µg/ml,PGT121 Fab Fragment,4,D,1,63,19.76,22.88,22.77,23.32,27.14,1.47,1.22,0.9,0.62,0.45,23812.84,1372.45,0.00376,6.64e-5,1.58e-7,9.53e-9,NA,NA,NA,NA,NA,NA,NA,NA,NA,NA,NA,NA,NA,NA,NA,NA,NA,NA,NA,NA
CH505TF_D7gp120.avi/293F 3 µg/ml,PGT121 Fab Fragment,2,D,3,64,29.68,24.04,21.19,20.13,NA,2.92,2.02,1.36,0.85,NA,10785.57,1068.18,0.00296,7.96e-5,2.74e-7,2.81e-8,NA,NA,NA,NA,NA,NA,NA,NA,NA,NA,NA,NA,NA,NA,NA,NA,NA,NA,NA,NA
CH505TF_D7gp120.avi/293F 3 µg/ml,PGT121 Fab Fragment,3,D,3,65,14.49,19.53,21.49,23.99,26.24,1.34,1.14,0.9,0.67,0.46,23760.82,1439.58,0.00379,7.13e-5,1.6e-7,1.01e-8,NA,NA,NA,NA,NA,NA,NA,NA,NA,NA,NA,NA,NA,NA,NA,NA,NA,NA,NA,NA
CH505TF_D7gp120.avi/293F 3 µg/ml,PGT121 Fab Fragment,4,D,3,66,23.32,21.11,20.2,23.06,25.44,1.82,1.3,0.93,0.7,0.49,24152.86,1594.96,0.00399,8.02e-5,1.65e-7,1.14e-8,NA,NA,NA,NA,NA,NA,NA,NA,NA,NA,NA,NA,NA,NA,NA,NA,NA,NA,NA,NA
BG505/6R.SOSIP.664/T332N 3 µg/ml,PGT121 Fab Fragment,2,D,9,67,180.74,231.96,307.91,400,400,18.97,11.52,7.21,NA,NA,31529.07,3334.08,1e-5,NA,3.17e-10,NA,1,0.06,2.81,18.41,100,5.43,5.16,4.97,2.43,NA,196.07,148.77,101.24,62.34,141.71,44.55,21.33,13.25,10.8,86.08
BG505/6R.SOSIP.664/T332N 3 µg/ml,PGT121 Fab Fragment,3,D,9,68,259.13,276.63,327.93,400,400,22.44,12.67,7.55,NA,NA,16644.53,965.8,1e-5,NA,6.01e-10,NA,-2.95,-2.58,-2.96,6.02,100,3.63,3.51,3.38,2.1,NA,189.95,196.17,162.17,117.78,641.45,31.55,18.41,11.07,10.82,37333.47
BG505/6R.SOSIP.664/T332N 3 µg/ml,PGT121 Fab Fragment,4,D,9,69,296.15,287.13,294.98,338.85,400,6.63,3.81,2.16,1.25,NA,11465.46,174.53,5.06e-5,2.39e-6,4.41e-9,2.19e-10,3.63,6.91,11.28,11.83,12.27,0.72,0.71,0.7,0.7,0.46,203.24,223.51,220.25,160.08,108.05,7.85,4.97,3.58,2.62,2.43
BG505/6R.SOSIP.664/T332N 3 µg/ml,PGT121 Fab Fragment,2,D,11,70,136.48,193.57,285.66,400,400,12.6,8,5.63,NA,NA,70919.15,9899.24,1e-5,NA,1.41e-10,NA,-0.19,4.87,15.17,29.29,100,7.03,6.51,6.07,3.24,NA,96.97,64.63,37.1,20.42,27.8,31.96,16.05,8.93,5.78,8.29
BG505/6R.SOSIP.664/T332N 3 µg/ml,PGT121 Fab Fragment,3,D,11,71,180.61,229.65,310.7,400,400,18.68,11.41,7.39,NA,NA,29006.08,2746.06,1e-5,NA,3.45e-10,NA,-3.97,-7.01,-6.96,17.56,100,4.97,4.73,4.6,2.26,NA,175.96,139.06,95.58,69.48,213.03,39.47,18.72,11.16,10.64,443.68
BG505/6R.SOSIP.664/T332N 3 µg/ml,PGT121 Fab Fragment,4,D,11,72,207.2,229.16,272.52,342.15,400,7.36,4.48,2.8,1.68,NA,18875.18,575.9,7.3e-5,4e-6,3.87e-9,2.43e-10,0.86,2.27,4.73,8.14,32.81,1.24,1.2,1.19,1.21,0.74,180,174.79,139.27,91.74,72.37,11.89,6.73,4.43,3.38,3.25
